<?xml version="1.0" encoding="UTF-8"?>
<svg width="24px" height="24px" viewBox="0 0 24 24" version="1.1" xmlns="http://www.w3.org/2000/svg" xmlns:xlink="http://www.w3.org/1999/xlink">
    <title>892DF9B3-F56C-4F49-BA1A-00C0801FAB0F</title>
    <defs>
        <path d="M21,19 L21,21 C21,21.6 20.6,22 20,22 C19.4,22 19,21.6 19,21 L19,19 C19,17.3 17.7,16 16,16 L8,16 C6.3,16 5,17.3 5,19 L5,21 C5,21.6 4.6,22 4,22 C3.4,22 3,21.6 3,21 L3,19 C3,16.2 5.2,14 8,14 L16,14 C18.8,14 21,16.2 21,19 Z M7,7 C7,4.2 9.2,2 12,2 C14.8,2 17,4.2 17,7 C17,9.8 14.8,12 12,12 C9.2,12 7,9.8 7,7 Z M9,7 C9,8.7 10.3,10 12,10 C13.7,10 15,8.7 15,7 C15,5.3 13.7,4 12,4 C10.3,4 9,5.3 9,7 Z" id="path-1"></path>
    </defs>
    <g id="Page-1" stroke="none" stroke-width="1" fill="none" fill-rule="evenodd">
        <g id="Login" transform="translate(-568.000000, -503.000000)">
            <g id="Group-2" transform="translate(495.000000, 305.000000)">
                <g id="Form-Elements/1-Input-Fields/Dark/1-Filled/2-Without-Label/2-Left-icon/3-Entered" transform="translate(61.000000, 186.000000)">
                    <g id="Leading-icon" transform="translate(12.000000, 12.000000)">
                        <rect id="Container" x="0" y="0" width="24" height="24"></rect>
                        <mask id="mask-2" fill="white">
                            <use xlink:href="#path-1"></use>
                        </mask>
                        <use id="Shape" fill="#000000" fill-rule="nonzero" xlink:href="#path-1"></use>
                        <g id="🎨-Color" mask="url(#mask-2)" fill="#7A8085">
                            <rect x="0" y="0" width="24" height="24"></rect>
                        </g>
                    </g>
                </g>
            </g>
        </g>
    </g>
</svg>